file=src/data/mutagenesis/molecule.csv
{
	attribute,id:n:n:q:q:n
	key,drug,0
	table,ind_1,0:1
	table,logp,0:3
	table,lumo,0:4
	table,active,0:5
}
file=src/data/mutagenesis/atom.csv
{
	attribute,id:id:n:n:q
	table,atom,1:0:2:3
	/table,atom_elem,1:0:2
	/table,atom_type,1:0:3
	/table,charge,1:0:4
}
file=src/data/mutagenesis/bond.csv
{
	attribute,id:id:id:n
	/table,bond,0:1:2:3
}
pattern
{
	drug(A),ind_1(A,C),lumo(A,Q1),logp(A,Q2),active(A,B)
}
rule
{
	1 1 2 1 1
}